Group Project
…
4.6 Feature Importance

library(vip)

# 1. Extract the underlying engine fit and get importance
# This retrieves the importance scores from the tuned XGBoost engine
xgb_imp_data <- final_model_fit %>%
  extract_fit_engine() %>%
  vi()

# 2. View the importance values (Gain, Cover, Frequency)
print(xgb_imp_data)

## # A tibble: 37 × 2
##    Variable              Importance
##    <chr>                      <dbl>
##  1 amt                       0.614 
##  2 hour_cos                  0.109 
##  3 categorygas_transport     0.0619
##  4 merchant_fraud_rate       0.0354
##  5 job_fraud_rate            0.0221
##  6 categorygrocery_pos       0.0192
##  7 hour_sin                  0.0178
##  8 categorykids_pets         0.0154
##  9 merchant_trans_count      0.0107
## 10 age                       0.0101
## # ℹ 27 more rows
…
